{
	"variables": [],
	"info": {
		"name": "Parity JSON-RPC",
		"_postman_id": "aca7312f-ee5f-a522-4408-c1a0ec5cb70f",
		"description": "",
		"schema": "https://schema.getpostman.com/json/collection/v2.0.0/collection.json"
	},
	"item": [
		{
			"name": "取的所有帳號/資產",
			"request": {
				"url": "http://192.168.1.121:8540",
				"method": "POST",
				"header": [
					{
						"key": "Content-Type",
						"value": "application/json",
						"description": ""
					}
				],
				"body": {
					"mode": "raw",
					"raw": "{\"jsonrpc\":\"2.0\",\"method\":\"parity_allAccountsInfo\",\"params\":[],\"id\":0}"
				},
				"description": ""
			},
			"response": []
		},
		{
			"name": "呼叫 合約方法",
			"request": {
				"url": "http://192.168.1.121:8540",
				"method": "POST",
				"header": [
					{
						"key": "Content-Type",
						"value": "application/json",
						"description": ""
					}
				],
				"body": {
					"mode": "raw",
					"raw": "{\"jsonrpc\":\"2.0\",\"method\":\"eth_call\",\"params\":[{\"to\":\"0xdeeddf0c867ab347d7f185aa9d529fb63111ec28\",\"data\":\"0x70a08231000000000000000000000000a50bc12772e9fa7fdbd788db4bc85d05c327c5dd\"},\"latest\"],\"id\":0}"
				},
				"description": "params = [{ to: \"資產 HEX地址\", data: `0x{資產func簽名}${64字元的客戶HEX地址}` }, \"latest\"]\n\n資產簽名 = js-sha3.keccak_256(`${abi.某個funcion.name}(abi.某個function.input裡面所有的type，用逗號分格)`).substr(0, 8)"
			},
			"response": []
		}
	]
}